4.2 Bayesian Regression Models using ‘Stan’: brms | An Introduction to Bayesian Data Analysis for Cognitive Science
…
\[\begin{equation}
\begin{aligned}
\mu &\sim Uniform(0, 60000) \\
\sigma &\sim Uniform(0, 2000) 
\end{aligned}
\tag{4.3}
\end{equation}\]

We’ll first load the data from data/button_press.csv:

df_noreading_data <- read_csv("./data/button_press.csv")
df_noreading_data 

## # A tibble: 361 x 2
##       rt trialn
##    <dbl>  <dbl>
##  1   141      1
##  2   138      2
##  3   128      3
##  4   132      4
##  5   126      5
##  6   134      6
##  7   163      7
##  8   149      8
##  9   133      9
## 10   110     10
## # … with 351 more rows
…
