4.1 A first linear model: Does attentional load affect pupil size? | An Introduction to Bayesian Data Analysis for Cognitive Science
…
That is, we don’t expect changes in size that increase or decrease the pupil size in more than 200 units.

to-do: maybe prior predictive distributions here??

4.1.2 The brms model

Before fitting the brms model, we load the data and center the predictor load:

df_pupil_data <- read_csv("data/pupil.csv")
df_pupil_data <- df_pupil_data %>%
    mutate(c_load = load - mean(load))
df_pupil_data

## # A tibble: 41 x 4
##   trial  load p_size c_load
##   <dbl> <dbl>  <dbl>  <dbl>
## 1     1     2  1021. -0.439
## 2     2     1   951. -1.44 
## 3     3     5  1064.  2.56 
## 4     4     4   913.  1.56 
## 5     5     0   603. -2.44 
## # … with 36 more rows
…
