15.1 A mixture model of the speed-accuracy trade-off | An Introduction to Bayesian Data Analysis for Cognitive Science
…
FIGURE 15.1: Three levels of difficulty of the global motion detection task. The figures show a consistent upward movement with three levels of coherence (10%, 50%, and 100%). The participants see the dots moving in the direction indicated by the arrows. The participants do not see the arrows and all the dots look identical in the actual task. Adapted from Han et al. (2018); licensed under CC BY 4.0.

Ollman's (1966) fast guess model assumes that the behavior in this task (and in any other choice task) is governed by two distinct cognitive processes: (i) a guess mode, and (ii) a task-engaged mode. In the guess mode, responses are fast and accuracy is at chance level. In the task-engaged mode, responses are slower and accuracy approaches 100%. This means that intermediate values of response times and accuracy can only be achieved by mixing responses from the two modes. Further assumptions of this model are that response times depend on the difficulty of the choice, and that the probability of being on one of the two states depend on the speed incentives during the instructions. (To simplify matters, we'll ignore the possibility of the accuracy of the choice being also affected by the difficulty of the choice.)

15.1.1.1 Dataset

We implement the assumptions behind Ollman's fast guess model and examine its fit to data of a global motion detection task from Dutilh et al. (2019).31

The dataset from Dutilh et al. (2019) contains ~2800 trials of each of the 20 subjects participating in a global motion detection task. There were two level of coherence yielding hard and easy trials (diff), and the trials where done under instructions that emphasized either accuracy or speed (emphasis). (The description of the other columns can be found in https://osf.io/utkjf/.)

(df_dots_data <- read_csv("data/global_motion.csv"))

## # A tibble: 56,097 x 11
##   subject diff  emphasis    rt   acc fix.dur stim  resp  trial block
##     <dbl> <chr> <chr>    <dbl> <dbl>   <dbl> <chr> <chr> <dbl> <dbl>
## 1       1 easy  speed      482     1   0.738 R     R         1     6
## 2       1 hard  speed      602     1   0.784 R     R         2     6
## 3       1 hard  speed      381     1   0.651 R     R         3     6
## 4       1 hard  speed      584     1   0.781 R     R         4     6
## 5       1 hard  speed      464     0   0.585 L     R         5     6
##   block.trial
##         <dbl>
## 1           1
## 2           2
## 3           3
## 4           4
## 5           5
## #  with 56,092 more rows
…
## We build the stimuli here:
N <- N_subj * N_trials
stimuli <- tibble(x = rep(c(rep(-.5,N_trials/2), rep(.5, N_trials/2)), N_subj),
                  x2 = rep(rep(c(-.5,.5), N_trials/2), N_subj),
                  subj = rep(1:N_subj, each = N_trials),
                  trial = rep(1:N_trials, N_subj)
                  )
stimuli

## # A tibble: 2,000 x 4
##       x    x2  subj trial
##   <dbl> <dbl> <int> <int>
## 1  -0.5  -0.5     1     1
## 2  -0.5   0.5     1     2
## 3  -0.5  -0.5     1     3
## 4  -0.5   0.5     1     4
## 5  -0.5  -0.5     1     5
## #  with 1,995 more rows
…
