8.1 Basic concepts illustrated using a two-level factor | An Introduction to Bayesian Data Analysis for Cognitive Science
…
            An Introduction to Bayesian Data Analysis for Cognitive Science

8.1 Basic concepts illustrated using a two-level factor

We first consider the simplest case: suppose we want to compare the means of a dependent variable (DV) such as response times between two groups of subjects. R can be used to simulate data for such an example. Such simulated data is available in the R-package bcogsci as the data set df_contrasts1. The simulations assumed longer response times in condition F1 (\(\mu_1 = 0.8\) sec) than F2 (\(\mu_2 = 0.4\) sec). The data from the \(10\) simulated subjects are aggregated and summary statistics are computed for the two groups.

data("df_contrasts1")
df_contrasts1

## # A tibble: 10 x 3
##   F        DV    id
##   <fct> <dbl> <int>
## 1 F1    0.636     1
## 2 F1    0.841     2
## 3 F1    0.555     3
## 4 F1    1.03      4
## 5 F1    0.938     5
## # … with 5 more rows
…
