Chapter 15 Bayes factors | An Introduction to Bayesian Data Analysis for Cognitive Science
…
15.9 Exercises

Exercise 15.1  Is there evidence for differences in the effect of cloze probability among the subjects?

Use Bayes factor to compare the log cloze probability model that we examined in section 15.2.2 with a similar model but that incorporates the strong assumption of no difference between subjects for the effect of cloze (\(\tau_{u_2}=0\)).

Exercise 15.2  Is there evidence for the claim that English subject relative clauses are easier to process than object relative clauses?

Consider again the reading time data coming from Experiment 1 of Grodner and Gibson (2005) presented in exercise 5.2:

data("df_gg05_rc")
df_gg05_rc

## # A tibble: 672 × 7
##    subj  item condition    RT residRT qcorrect experiment
##   <int> <int> <chr>     <int>   <dbl>    <int> <chr>     
## 1     1     1 objgap      320   -21.4        0 tedrg3    
## 2     1     2 subjgap     424    74.7        1 tedrg2    
## 3     1     3 objgap      309   -40.3        0 tedrg3    
## # ℹ 669 more rows
…
