Chapter 8 Contrast coding | An Introduction to Bayesian Data Analysis for Cognitive Science
…
For this and the next chapter, although knowledge of the matrix formulation of the linear model is not necessary, for a deeper understanding of contrast coding some exposure to the matrix formulation is desirable. We discuss the matrix formulation in Box 5.3 and in the frequentist textbook (Vasishth et al. 2021).

8.1 Basic concepts illustrated using a two-level factor

We first consider the simplest case: suppose we want to compare the means of a dependent variable (DV) such as response times between two groups of subjects. A simulated data set is available in the package bcogsci as the data set df_contrasts1. The simulations assumed longer response times in condition \(F1\) (\(\mu_1 = 0.8\) sec) than \(F2\) (\(\mu_2 = 0.4\) sec). The data from the \(10\) simulated subjects are aggregated and summary statistics are computed for the two groups.

data("df_contrasts1")
df_contrasts1

## # A tibble: 10 × 3
##   F        DV    id
##   <fct> <dbl> <int>
## 1 F1    0.636     1
## 2 F1    0.841     2
## 3 F1    0.555     3
## # … with 7 more rows
…
Interestingly, this provides the same estimate of roughly \(-0.4\) as we obtained previously when using the treatment contrast or the scaled sum contrasts.
Thus, Bayesian models provide a lot of flexibility in computing new comparisons post-hoc from the posterior samples and in obtaining their posterior distributions. However, what these posterior computations do not provide directly are inferences on null hypotheses, i.e., they do not allow us to make inference on whether a given contrast is best explained by a null model assuming no difference, or by an alternative model assuming a difference between conditions.

8.2 The hypothesis matrix illustrated with a three-level factor

Consider an example with the three word classes nouns, verbs, and adjectives. We load simulated data from a lexical decision task with response times as dependent variable. The research question is: do response times differ as a function of the between-subject factor word class with three levels: nouns, verbs, and adjectives? Here, just to illustrate the case of a three-level factor, we make the arbitrary assumption that nouns have longest response times and that adjectives the shortest response times. Word class is specified as a between-subject factor. In cognitive science experiments, word class will usually vary within subjects and between items. However, the within- or between-subjects status of an effect is independent of its contrast coding; we assume the manipulation to be between subjects for ease of exposition. The concepts presented here extend to repeated measures designs that are often analyzed using hierarchical Bayesian (linear mixed) models.

Load and display the simulated data.

data("df_contrasts2")
head(df_contrasts2)

## # A tibble: 6 × 3
##   F        DV    id
##   <fct> <int> <int>
## 1 nouns   476     1
## 2 nouns   517     2
## 3 nouns   491     3
## # … with 3 more rows
…
