Chapter 3 Computational Bayesian data analysis | An Introduction to Bayesian Data Analysis for Cognitive Science
…
\[\begin{equation}
\begin{aligned}
\mu &\sim \mathit{Uniform}(0, 60000) \\
\sigma &\sim \mathit{Uniform}(0, 2000)
\end{aligned}
\tag{3.4}
\end{equation}\]

First, load the data frame df_spacebar from the bcogsci package:

data("df_spacebar")
df_spacebar

## # A tibble: 361 × 2
##       t trial
##   <int> <int>
## 1   141     1
## 2   138     2
## 3   128     3
## # ℹ 358 more rows
…
## 5.791 sec elapsed

prior_pred

## # A tibble: 361,000 × 3
##   trialn t_pred  iter
##    <dbl>  <dbl> <dbl>
## 1      1 16710.     1
## 2      2 16686.     1
## 3      3 17245.     1
## # ℹ 360,997 more rows
…
\[\begin{equation}
p(\boldsymbol{y_{pred}}\mid \boldsymbol{y} )=\int_{\boldsymbol{\Theta}} p(\boldsymbol{y_{pred}}\mid \boldsymbol{\Theta}) p(\boldsymbol{\Theta}\mid \boldsymbol{y})\, d\boldsymbol{\Theta}
\tag{3.8}
\end{equation}\]

In Equation (3.8), we are conditioning \(\boldsymbol{y_{pred}}\) only on \(\boldsymbol{y}\), we do not condition on what we don’t know (\(\boldsymbol{\Theta}\)); the unknown parameters have been integrated out. This posterior predictive distribution has important differences from predictions obtained with the frequentist approach. The frequentist approach gives a point estimate of each predicted observation given the maximum likelihood estimate of \(\boldsymbol{\Theta}\) (a point value), whereas the Bayesian approach gives a distribution of values for each predicted observation. As with the prior predictive distribution, the integration can be carried out computationally by generating samples from the posterior predictive distribution. The same function that we created before, normal_predictive_distribution(), can be used here. The only difference is that instead of sampling mu and sigma from the priors, the samples come from the posterior.

N_obs <- nrow(df_spacebar)
mu_samples <- as_draws_df(fit_press)$b_Intercept
sigma_samples <- as_draws_df(fit_press)$sigma
normal_predictive_distribution(mu_samples = mu_samples,
                               sigma_samples = sigma_samples,
                               N_obs = N_obs)

## # A tibble: 1,444,000 × 3
##    iter trialn t_pred
##   <dbl>  <int>  <dbl>
## 1     1      1   126.
## 2     1      2   132.
## 3     1      3   168.
## # ℹ 1,443,997 more rows
…
