Chapter 5 Bayesian hierarchical models | An Introduction to Bayesian Data Analysis for Cognitive Science
…
The notation \(subj[n]\), which roughly follows Gelman and Hill (2007), identifies the subject index. Suppose that 20 subjects respond 50 times each. If the data are ordered by subject id, then \(subj[1]\) to \(subj[50]\) corresponds to a subject with id \(i=1\), \(subj[51]\) to \(subj[100]\) corresponds to a subject with id \(i=2\), and so forth.

We can code this representation in a straightforward way in R:

N_subj <- 20
N_obs_subj <- 50
N <- N_subj * N_obs_subj
df <- tibble(row = 1:N,
             subj = rep(c(1:N_subj), each = N_obs_subj))
df

## # A tibble: 1,000 × 2
##     row  subj
##   <int> <int>
## 1     1     1
## 2     2     1
## 3     3     1
## # … with 997 more rows
…
\[\begin{equation}
\mu_i \sim \mathit{Normal}(\mu,\tau)
\end{equation}\]

To make this more concrete, assume some completely arbitrary true values for the parameters, and generate observations based on a hierarchical process in R.

mu <- 100
tau <- 15
sigma <- 4
mu_i <- rnorm(N_subj, mu, tau)
df_h <- mutate(df, y = rnorm(N, mu_i[subj], sigma))
df_h 

## # A tibble: 1,000 × 3
##     row  subj     y
##   <int> <int> <dbl>
## 1     1     1 102. 
## 2     2     1  96.6
## 3     3     1 107. 
## # … with 997 more rows
…
\[\begin{equation}
y_n \sim \mathit{Normal}(\mu,\sigma).
\end{equation}\]

This model is an intercept only regression similar to what we saw in chapter 3.

Generate fake observations in a vector y based on arbitrary true values in R in the following way.

sigma <- 4
mu <- 100
df_cp <- mutate(df, y = rnorm(N, mu, sigma))
df_cp

## # A tibble: 1,000 × 3
##     row  subj     y
##   <int> <int> <dbl>
## 1     1     1  97.4
## 2     2     1  95.3
## 3     3     1  96.2
## # … with 997 more rows
…
The other configuration is called the no pooling model; here, each \(y_n\) is assumed to be generated from an independent distribution:

\[\begin{equation}
y_n \sim \mathit{Normal}(\mu_{subj[n]},\sigma)
\end{equation}\]

Generate fake observations from the no pooling model in R with arbitrary true values.

sigma <- 4
mu_i <- c(156, 178, 95, 183, 147, 191, 67, 153, 129, 119, 195,
          150, 172, 97, 110, 115, 78, 126, 175, 80)
df_np <- mutate(df, y = rnorm(N, mu_i[subj], sigma))
df_np

## # A tibble: 1,000 × 3
##     row  subj     y
##   <int> <int> <dbl>
## 1     1     1  152.
## 2     2     1  164.
## 3     3     1  153.
## # … with 997 more rows
…
Example from DeLong, Urbach, and Kutas (2005)

The day was breezy so the boy went outside to fly a kite.

The day was breezy so the boy went outside to fly an airplane.

We’ll ignore the goal of original experiment (DeLong, Urbach, and Kutas 2005), and its replication (Nieuwland et al. 2018). We are going to focus on the N400 at the final nouns in the experimental stimuli. In example (2), for example, the final noun ‘kite’ has higher predictability than ‘airplane’, and thus we would expect a more negative signal in ‘airplane’ in (b) in comparison with ‘kite’ in (a).

To speed up computation, we restrict the data set to the subjects from the Edinburgh lab, using the relevant subset containing the Edinburgh data fro df_eeg in the bcogsci package. Center the cloze probability before using it as a predictor.

data("df_eeg")
(df_eeg <- df_eeg %>%
  mutate(c_cloze = cloze - mean(cloze)))

## # A tibble: 2,863 × 7
##    subj cloze  item  n400 cloze_ans     N c_cloze
##   <dbl> <dbl> <dbl> <dbl>     <dbl> <dbl>   <dbl>
## 1     1  0        1  7.08         0    44  -0.476
## 2     1  0.03     2 -0.68         1    44  -0.446
## 3     1  1        3  1.39        44    44   0.524
## # … with 2,860 more rows
…
We are now ready to fit the model. To speed up computation, we subset 50 subjects of the original data set; both the subsetted data and the original data set can be found in the package bcogsci. If we were analyzing these data for publication in a journal article or the like, we would obviously not subset the data.

We restrict ourselves to the correct trials only, and add a c_cond predictor, sum-coded as described earlier.

data("df_stroop")
(df_stroop <- df_stroop %>%
  mutate(c_cond = if_else(condition == "Incongruent", 1, -1)))

## # A tibble: 3,058 × 5
##    subj trial condition      RT c_cond
##   <dbl> <int> <chr>       <int>  <dbl>
## 1     1     0 Congruent    1484     -1
## 2     1     1 Incongruent  1316      1
## 3     1     2 Incongruent   628      1
## # … with 3,055 more rows
…
5.6 Further reading

Chapter 5 of Gelman et al. (2014) provides a rather technical but complete treatment of exchangeability in Bayesian hierarchical models. Bernardo and Smith (2009) is a brief but useful article explaining exchangeability, and Lunn et al. (2012) also has a helpful discussion that we have drawn on in this chapter. Gelman and Hill (2007) is a comprehensive treatment of hierarchical modeling, although it uses WinBUGS. Yarkoni (2020) discusses the importance of modeling variability in variables that researchers clearly intend to generalize over (e.g., stimuli, tasks, or research sites), and how under-specification of population-level (or random) effects imposes strong constraints on the generalizability of results. Sorensen, Hohenstein, and Vasishth (2016) provides an introduction, using Stan, to the Laird-Ware style matrix formulation (Laird and Ware 1982) of hierarchical models; this formulation has the advantage of flexibility and efficiency when specifying models in Stan syntax.

5.7 Exercises

Exercise 5.1  A hierarchical model (normal likelihood) of cognitive load on pupil size.

As in section 4.1, we focus on the effect of cognitive load on pupil size, but this time we look at all the subjects of Wahn et al. (2016):

data("df_pupil_complete")
df_pupil_complete

## # A tibble: 2,228 × 4
##    subj trial  load p_size
##   <int> <int> <int>  <dbl>
## 1   701     1     2  1021.
## 2   701     2     1   951.
## 3   701     3     5  1064.
## # … with 2,225 more rows
…
(1a) The reporter [who the photographer sent to the editor] was hoping for a good story. (ORC)

(1b) The reporter [who sent the photographer to the editor] was hoping for a good story. (SRC)

The underlying explanation has to do with memory processes: Shorter linguistic dependencies are easier to process due to either reduced interference or decay, or both. For implemented computational models that spell this point out, see Lewis and Vasishth (2005) and Engelmann, Jäger, and Vasishth (2020).

In the Grodner and Gibson data, the dependent measure is reading time at the relative clause verb, (e.g., sent) of different sentences with either ORC or SRC. The dependent variable is in milliseconds and was measured in a self-paced reading task. Self-paced reading is a task where subjects read a sentence or a short text word-by-word or phrase-by-phrase, pressing a button to get each word or phrase displayed; the preceding word disappears every time the button is pressed. In 6.1, we provide a more detailed explanation of this experimental method.

For this experiment, we are expecting longer reading times at the relative clause verbs of ORC sentences in comparison to the relative clause verb of SRC sentences.

data("df_gg05_rc")
df_gg05_rc

## # A tibble: 672 × 7
##    subj  item condition    RT residRT qcorrect experiment
##   <int> <int> <chr>     <int>   <dbl>    <int> <chr>     
## 1     1     1 objgap      320   -21.4        0 tedrg3    
## 2     1     2 subjgap     424    74.7        1 tedrg2    
## 3     1     3 objgap      309   -40.3        0 tedrg3    
## # … with 669 more rows
…
First, using a log-normal likelihood, fit a hierarchical model with correlated varying intercept and slopes for subjects and items. You will need to decide on the priors for the model.

By simply looking at the posterior distribution of the slope parameter \(\beta\), what would you conclude about the theoretical claim relating to agreement attraction?

Exercise 5.5  Attentional blink (Bernoulli likelihood)

The attentional blink (AB; first described by Raymond, Shapiro, and Arnell 1992; though it has been noticed before e.g., Broadbent and Broadbent 1987) refers to a temporary reduction in the accuracy of detecting a probe (e.g., a letter “X”) presented closely after a target that has been detected (e.g., a white letter). We will focus on the experimental condition of Experiment 2 of Raymond, Shapiro, and Arnell (1992). Subjects are presented with letters in rapid serial visual presentation (RSVP) at the center of the screen at a constant rate and are required to identify the only white letter (target) in the stream of black letters, and then to report whether the letter X (probe) occurred in the subsequent letter stream. The AB is defined as having occurred when the target is reported correctly but the report of the probe is inaccurate at a short lag or target-probe interval.

The data set df_ab is a subset of the data of this paradigm from a replication conducted by Grassi et al. (2021). In this subset, the probe was always present and the target was correctly identified. We want to find out how the lag affects the accuracy of the identification of the probe.

data("df_ab")
df_ab

## # A tibble: 2,101 × 4
##    subj probe_correct trial   lag
##   <int>         <int> <int> <int>
## 1     1             0     2     5
## 2     1             1     4     4
## 3     1             1     8     6
## # … with 2,098 more rows
…
