Chapter 10 Introduction to the probabilistic programming language Stan | An Introduction to Bayesian Data Analysis for Cognitive Science
…
Exercise 10.5  Examining the position of the queued word on recall.

Refit the model presented in section 10.4.3 and examine whether set size, trial effects, the position of the queued word (tested in the data set), and their interaction affect free recall. (Tip: You can do this exercise without changing the Stan code.).

How does the accuracy change from position one to position two?

Exercise 10.6  The conjunction fallacy.

Paolacci, Chandler, and Ipeirotis (2010) examined whether the results of some classic experiments differ between a university pool population and subjects recruited from Mechanical Turk. We’ll examine whether the results of the conjunction fallacy experiment (or Linda problem: Tversky and Kahneman 1983) are replicated for both groups.

data("df_fallacy")
df_fallacy

## # A tibble: 268 × 2
##   source answer
##   <chr>   <int>
## 1 mturk       1
## 2 mturk       1
## 3 mturk       1
## # ℹ 265 more rows
…
