Chapter 20 A simple accumulator model to account for choice response time | An Introduction to Bayesian Data Analysis for Cognitive Science
…
FIGURE 20.1: Two trials in a lexical decision task. For the first trial, rurble, the correct answer would be to press the key on a keyboard or a response console that is mapped to the “non-word” response, for the second trial, monkey, the correct answer would be to press the key that is mapped to the “word” response.

data("df_blp")
df_blp

## # A tibble: 24,000 × 8
##    subj block lex      trial string    acc    rt  freq
##   <dbl> <dbl> <chr>    <dbl> <fct>   <dbl> <dbl> <dbl>
## 1     1    57 non-word 28263 paybods     1   591     0
## 2     1    53 non-word 26414 lunned      1   621     0
## 3     1    49 non-word 24333 pertrax     1   575     0
## # … with 23,997 more rows
…
The aggregated data look like this:

df_blp_lex_q %>% print(n = 10)

## # A tibble: 20 × 5
## # Groups:   lex [2]
##    lex       rt_q      p     q response 
##    <chr>    <dbl>  <dbl> <dbl> <chr>    
##  1 non-word  433. 0.0521   0.1 incorrect
##  2 non-word  521. 0.0521   0.3 incorrect
##  3 non-word  613  0.0521   0.5 incorrect
##  4 non-word  779. 0.0521   0.7 incorrect
##  5 non-word 1110  0.0521   0.9 incorrect
##  6 non-word  448  0.948    0.1 correct  
##  7 non-word  513  0.948    0.3 correct  
##  8 non-word  575  0.948    0.5 correct  
##  9 non-word  666  0.948    0.7 correct  
## 10 non-word  905  0.948    0.9 correct  
## # … with 10 more rows
…
            # Each row indicates:
            # - sim: from which simulation the observation is coming
            # - obs_id: identifies the 24000 observations
            # - rt_pred: simulated RT
            # Since each observation is in a column starting with V
            # `names_prefix` removes the "V"
                         pivot_longer(cols = -sim,
                                      names_to = "obs_id",
                                      names_prefix = "V",
                                      values_to = "rt_pred") %>%
            # Make sure that obs_id is a number (and not a character)
            mutate(obs_id = as.numeric(obs_id)) 
df_rt

## # A tibble: 4,800,000 × 3
##     sim obs_id rt_pred
##   <int>  <dbl>   <dbl>
## 1     1      1    483.
## 2     1      2    488.
## 3     1      3    623.
## # … with 4,799,997 more rows

Second, extract the array of predicted choice (1 for words and 2 for non-words) and transform it into a long format.

df_nchoice <- rstan::extract(gen_race_data)$nchoice_pred %>%
                         as.data.frame() %>%
                         mutate(sim = 1:n()) %>%
                         pivot_longer(cols = -sim,
                                      names_to = "obs_id",
                                      names_prefix = "V",
                                      values_to = "nchoice_pred") %>%
                         mutate(obs_id = as.numeric(obs_id)) 
df_nchoice

## # A tibble: 4,800,000 × 3
##     sim obs_id nchoice_pred
##   <int>  <dbl>        <dbl>
## 1     1      1            2
## 2     1      2            2
## 3     1      3            2
## # … with 4,799,997 more rows

Third, create a new data frame with the characteristics of the stimuli the predictions and observations. The predictions come from \(200\) simulated dataset, each simulation is indexed with sim (whereas for the empirical observations, sim is set to NA).

df_blp_main <- df_blp %>%
  select(subj, lex, lfreq, rt, nchoice) %>%
  mutate(obs_id = 1:n())
df_blp_pred <- left_join(df_rt, df_nchoice) %>%
  left_join(select(df_blp_main, -rt, -nchoice)) %>%
  rename(rt = rt_pred, nchoice = nchoice_pred) %>%
  bind_rows(df_blp_main) %>%
  mutate(acc = ifelse((nchoice == 1 & lex == "word") |
                        (nchoice == 2 & lex == "non-word"), 1, 0))
df_blp_pred

## # A tibble: 4,824,000 × 8
##     sim obs_id    rt nchoice  subj lex      lfreq   acc
##   <int>  <dbl> <dbl>   <dbl> <dbl> <chr>    <dbl> <dbl>
## 1     1      1  483.       2     1 non-word -4.61     1
## 2     1      2  488.       2     1 non-word -4.61     1
## 3     1      3  623.       2     1 non-word -4.61     1
## # … with 4,823,997 more rows
…
