Chapter 18 Multinomial processing trees | An Introduction to Bayesian Data Analysis for Cognitive Science
…
head(theta_item,n = 3)

##      [,1]  [,2]   [,3]   [,4]  [,5]
## [1,] 0.25 0.260 0.0289 0.0461 0.415
## [2,] 0.25 0.276 0.0307 0.0443 0.399
## [3,] 0.25 0.366 0.0406 0.0344 0.309

Store this in a data frame:

sim_data_cx <- tibble(item = 1:N_obs,
                      complexity = complexity,
                      w_ans = c(rcat(N_obs,theta_item)))
sim_data_cx

## # A tibble: 50 × 3
##    item complexity w_ans
##   <int>      <dbl> <dbl>
## 1     1     -0.560     5
## 2     2     -0.230     2
## 3     3      1.56      2
## # ℹ 47 more rows
…
subj <- rep(1:N_subj, each = N_item)
item <- rep(1:N_item, time = N_subj)

A vector representing complexity is created for the number of items we have, and this vector is repeated as many times as there are subjects:

complexity <- rep(rnorm(N_item), times = N_subj)

Next, create a data frame with all the above information:

(exp_sim <- tibble(subj = subj,
                  item = item,
                  complexity = complexity))

## # A tibble: 600 × 3
##    subj  item complexity
##   <int> <int>      <dbl>
## 1     1     1     -0.560
## 2     1     2     -0.230
## 3     1     3      1.56 
## # ℹ 597 more rows
…
## [1] 600   5

The probability specifications shown above can now generate the simulated data:

(sim_data_h <- mutate(exp_sim,
                      w_ans = rcat(N_obs,theta_h)))

## # A tibble: 600 × 4
##    subj  item complexity w_ans
##   <int> <int>      <dbl> <dbl>
## 1     1     1     -0.560     2
## 2     1     2     -0.230     1
## 3     1     3      1.56      1
## # ℹ 597 more rows
…
