Chapter 19 Mixture models | An Introduction to Bayesian Data Analysis for Cognitive Science
…
FIGURE 19.1: Three levels of difficulty of the global motion detection task. The figures show a consistent movement to the right with three levels of coherence (10%, 50%, and 100%). The subjects see the dots moving in the direction indicated by the arrows. The subjects do not see the arrows and all the dots look identical in the actual task. Adapted from Han et al. (2018); licensed under CC BY 4.0.

Ollman’s (1966) fast-guess model assumes that the behavior in this task (and in any other choice task) is governed by two distinct cognitive processes: (i) a guessing mode, and (ii) a task-engaged mode. In the guessing mode, responses are fast and accuracy is at chance level. In the task-engaged mode, responses are slower and accuracy approaches 100%. This means that intermediate values of response times and accuracy can only be achieved by mixing responses from the two modes. Further assumptions of this model are that response times depend on the difficulty of the choice, and that the probability of being on one of the two states depend on the speed incentives during the instructions. (To simplify matters, we ignore the possibility of the accuracy of the choice being also affected by the difficulty of the choice. Also, we ignore the possibility that subjects might be biased to one specific response in the guessing mode, but see exercise 19.3.)

19.1.1.1 Data set

We implement the assumptions behind Ollman’s fast-guess model and examine its fit to data of a global motion detection task from Dutilh et al. (2019).

The data set from Dutilh et al. (2019) contains ~2800 trials of each of the 20 subjects participating in a global motion detection task and can be found as df_dots in the bcogsci package. There were two level of coherence yielding hard and easy trials (diff), and the trials where done under instructions that emphasized either accuracy or speed (emphasis). More information about the data set can be found by accessing the documentation for the data set (by typing ?df_dots in the R console).

data("df_dots") 
df_dots

## # A tibble: 56,097 × 12
##    subj diff  emphasis    rt   acc fix_dur stim  resp  trial block
##   <int> <chr> <chr>    <dbl> <int>   <dbl> <chr> <chr> <int> <int>
## 1     1 easy  speed      482     1   0.738 R     R         1     6
## 2     1 hard  speed      602     1   0.784 R     R         2     6
## 3     1 hard  speed      381     1   0.651 R     R         3     6
##   block_trial bias 
##         <int> <chr>
## 1           1 no   
## 2           2 no   
## 3           3 no   
## # … with 56,094 more rows
…
## Build the data set here:
N <- N_subj * N_trials
stimuli <- tibble(x = rep(c(rep(-.5, N_trials / 2),
                            rep(.5, N_trials / 2)), N_subj),
                  x2 = rep(rep(c(-.5, .5), N_trials / 2), N_subj),
                  subj = rep(1:N_subj, each = N_trials),
                  trial = rep(1:N_trials, N_subj)
                  )
stimuli

## # A tibble: 2,000 × 4
##       x    x2  subj trial
##   <dbl> <dbl> <int> <int>
## 1  -0.5  -0.5     1     1
## 2  -0.5   0.5     1     2
## 3  -0.5  -0.5     1     3
## # … with 1,997 more rows
…
