Chapter 13 Meta-analysis and measurement error models | An Introduction to Bayesian Data Analysis for Cognitive Science
…
13.1 Meta-analysis

Once a number of studies have accumulated on a particular topic, it can be very informative to synthesize the data. Here is a commonly used approach- a random-effects meta-analysis.

13.1.1 A meta-analysis of similarity-based interference in sentence comprehension

The model is set up as follows. For each study \(n\), let effect\(_n\) be the effect of interest, and let \(SE_n\) be the standard error of the effect. A concrete example of a recent meta-analysis is the effect of similarity-based interference in sentence comprehension (Jäger, Engelmann, and Vasishth 2017); when two nouns are more similar to each other, there is greater processing difficulty (i.e., longer reading times in milliseconds) when an attempt is made to retrieve one of the nouns to complete a linguistic dependency (such as a subject-verb dependency). The estimate of the effect and its standard error is the information we have from each study \(n\).

First, load the data, and add an id variable that identifies each experiment.

data("df_sbi")
(df_sbi <- df_sbi %>%
  mutate(study_id = 1:n()))

## # A tibble: 12 × 4
##   publication      effect    SE study_id
##   <chr>             <int> <int>    <int>
## 1 VanDyke07E1LoSem     13    30        1
## 2 VanDyke07E2LoSem     37    21        2
## 3 VanDyke07E3LoSem     20    11        3
## # … with 9 more rows
…
13.2 Measurement-error models

Measurement error models deal with the situation where some predictor or the dependent variable, or both, are observed with measurement error. This measurement error could arise because a variable is an average (i.e., its standard error can also be estimated), or because we know that our measurement is noisy due to limitations of our equipment (e.g., delays in the signal from the keyboard to the motherboard, impedance in the electrodes in an EEG system, etc.).

13.2.1 Accounting for measurement error in individual differences in working memory capacity and reading fluency

As a motivating example, consider the following data from Nicenboim, Vasishth, et al. (2018).
For each subject, we have the partial-credit unit (PCU) scores of an operation span task as a measure of their working memory capacity (Conway et al. 2005) along with their standard error. In addition, the reading fluency of each subject is calculated from a separate set of data based on the mean reading speeds (character/second) in a rapid automatized naming task (RAN, Denckla and Rudel 1976); the standard error of the reading speed is also available.

Of interest here is the extent of the association between working memory capacity (measured as PCU) and reading fluency (measured as reading speed in 50 characters per second). We avoid making any causal claims: It could be that our measure of working memory capacity really affects reading fluency or it could be the other way around, a third possibility is that there is a third variable (or several) that affects both reading fluency and working memory capacity. A treatment of causality in Bayesian models can be found in chapters 5 and 6 of McElreath (2020).

data("df_indiv")
df_indiv

## # A tibble: 100 × 5
##    subj mean_rspeed se_rspeed mean_pcu se_pcu
##   <dbl>       <dbl>     <dbl>    <dbl>  <dbl>
## 1     1      0.0521   0.00113    0.738 0.0648
## 2     2      0.0479   0.00121    0.292 0.0315
## 3     3      0.0601   0.00117    0.408 0.0900
## # … with 97 more rows
…
