8.5 Computing condition means from estimated contrasts | An Introduction to Bayesian Data Analysis for Cognitive Science
…
postTab

## # A tibble: 4 x 4
##   condition post_mean `2.5%` `97.5%`
##   <chr>         <dbl>  <dbl>   <dbl>
## 1 b_F1             10      0      20
## 2 b_F2             20     10      30
## 3 b_F3             10      1      20
## # … with 1 more row
…
