13.1 Meta-analysis | An Introduction to Bayesian Data Analysis for Cognitive Science
…
13.1 Meta-analysis

Once a number of studies have accumulated on a particular topic, it can be very informative to synthesize the data. Here is a commonly used approach: a random-effects meta-analysis.

13.1.1 A meta-analysis of similarity-based interference in sentence comprehension

The model is set up as follows. For each study \(n\), let effect\(_n\) be the effect of interest, and let \(SE_n\) be the standard error of the effect. A concrete example from a recent meta-analysis is the effect of similarity-based interference in sentence comprehension (Jäger, Engelmann, and Vasishth 2017); when two nouns are more similar to each other, there is greater processing difficulty (i.e., longer reading times in milliseconds) when an attempt is made to retrieve one of the nouns to complete a linguistic dependency. The estimate of the effect and its standard error is the information we have from each study \(n\).

First, we load the data, and we add an id that identifies each experiment.

data("df_sbi")
(df_sbi <- df_sbi %>%
  mutate(study_id = 1:n()))

## # A tibble: 12 x 4
##   publication      effect    SE study_id
##   <chr>             <int> <int>    <int>
## 1 VanDyke07E1LoSem     13    30        1
## 2 VanDyke07E2LoSem     37    21        2
## 3 VanDyke07E3LoSem     20    11        3
## # … with 9 more rows
…
