20.1 Modeling a lexical decision task | An Introduction to Bayesian Data Analysis for Cognitive Science
…
FIGURE 20.1: Two trials in a lexical decision task. For the first trial, rurble, the correct answer would be to press the key on a keyboard or a response console that is mapped to the “non-word” response, for the second trial, monkey, the correct answer would be to press the key that is mapped to the “word” response.

data("df_blp")
df_blp

## # A tibble: 24,000 × 8
##    subj block lex      trial string    acc    rt  freq
##   <dbl> <dbl> <chr>    <dbl> <fct>   <dbl> <dbl> <dbl>
## 1     1    57 non-word 28263 paybods     1   591     0
## 2     1    53 non-word 26414 lunned      1   621     0
## 3     1    49 non-word 24333 pertrax     1   575     0
## # … with 23,997 more rows
…
The aggregated data look like this:

df_blp_lex_q %>% print(n = 10)

## # A tibble: 20 × 5
## # Groups:   lex [2]
##    lex       rt_q      p     q response 
##    <chr>    <dbl>  <dbl> <dbl> <chr>    
##  1 non-word  433. 0.0521   0.1 incorrect
##  2 non-word  521. 0.0521   0.3 incorrect
##  3 non-word  613  0.0521   0.5 incorrect
##  4 non-word  779. 0.0521   0.7 incorrect
##  5 non-word 1110  0.0521   0.9 incorrect
##  6 non-word  448  0.948    0.1 correct  
##  7 non-word  513  0.948    0.3 correct  
##  8 non-word  575  0.948    0.5 correct  
##  9 non-word  666  0.948    0.7 correct  
## 10 non-word  905  0.948    0.9 correct  
## # … with 10 more rows
…
