19.2 Multinomial processing tree (MPT) models | An Introduction to Bayesian Data Analysis for Cognitive Science
…
head(theta_item,n = 3)

##      [,1]  [,2]   [,3]   [,4]  [,5]
## [1,] 0.25 0.239 0.0265 0.0485 0.436
## [2,] 0.25 0.262 0.0291 0.0459 0.413
## [3,] 0.25 0.425 0.0472 0.0278 0.250

Store this in a data frame.

sim_data_cx <- tibble(item = 1:N_obs,
                      complexity = complexity,
                      w_ans = c(rcat(N_obs,theta_item)))
sim_data_cx

## # A tibble: 50 x 3
##    item complexity w_ans
##   <int>      <dbl> <dbl>
## 1     1     -1.01      5
## 2     2     -0.526     5
## 3     3      2.76      1
## # … with 47 more rows
…
subj <- rep(1:N_subj, each = N_item)
item <- rep(1:N_item, time = N_subj)

A vector representing complexity is created for the number of items we have, and this vector is repeated as many times as there are subjects:

complexity <- rep(rnorm(N_item, 0, 2), times = N_subj)

Next, create a data frame with all the above information:

(exp_sim <- tibble(subj = subj,
                  item = item,
                  complexity = complexity))

## # A tibble: 600 x 3
##    subj  item complexity
##   <int> <int>      <dbl>
## 1     1     1     1.08  
## 2     1     2     0.0734
## 3     1     3    -1.73  
## # … with 597 more rows
…
## [1] 600   5

The probability specifications shown above can now generate the simulated data:

# simulated data:
(sim_data_h <- mutate(exp_sim,
                      w_ans = rcat(N_obs,theta_h)))

## # A tibble: 600 x 4
##    subj  item complexity w_ans
##   <int> <int>      <dbl> <dbl>
## 1     1     1     1.08       2
## 2     1     2     0.0734     1
## 3     1     3    -1.73       1
## # … with 597 more rows
…
