3.5 Posterior predictive distribution | An Introduction to Bayesian Data Analysis for Cognitive Science
…
We are conditioning \(\boldsymbol{y_{pred}}\) only on \(\boldsymbol{y}\), we do not condition on what we don’t know (\(\boldsymbol{\Theta}\)); we integrate out the unknown parameters. This posterior predictive distribution is different from the frequentist approach, which gives only a predictive distribution of \(\boldsymbol{y_{pred}}\) given our maximum likelihood estimate of \(\boldsymbol{\Theta}\) (a point value). As with the prior predictive distribution, we can avoid performing the integration explicitly by generating samples from the posterior predictive distribution. We can use the same function that we created before, normal_predictive_distribution, with the only difference in that instead of sampling mu and sigma from the priors, we use samples from the posterior.

N_obs <- nrow(df_spacebar)
mu_samples <- posterior_samples(fit_press)$b_Intercept
sigma_samples <- posterior_samples(fit_press)$sigma
normal_predictive_distribution(
  mu_samples = mu_samples,
  sigma_samples = sigma_samples,
  N_obs = N_obs
)

## # A tibble: 1,444,000 x 3
##    iter trialn rt_pred
##   <dbl>  <int>   <dbl>
## 1     1      1    156.
## 2     1      2    179.
## 3     1      3    167.
## 4     1      4    160.
## 5     1      5    182.
## # … with 1,443,995 more rows
…
