4.1 A first linear regression: Does attentional load affect pupil size? | An Introduction to Bayesian Data Analysis for Cognitive Science
…
We get similar results calculating the average of 20000 samples.

mean(rtnorm(20000, mean = 0, sd = 1000, a = 0))

## [1] 802

4.1.2 The brms model

Before fitting the brms model, we load the data and center the predictor load:

data("df_pupil")
(df_pupil <- df_pupil %>%
  mutate(c_load = load - mean(load)))

## # A tibble: 41 x 5
##    subj trial  load p_size c_load
##   <int> <int> <int>  <dbl>  <dbl>
## 1   701     1     2  1021. -0.439
## 2   701     2     1   951. -1.44 
## 3   701     3     5  1064.  2.56 
## 4   701     4     4   913.  1.56 
## 5   701     5     0   603. -2.44 
## # … with 36 more rows
…
