5.2 A hierarchical model with a normal likelihood: The N400 effect | An Introduction to Bayesian Data Analysis for Cognitive Science
…
Example from DeLong, Urbach, and Kutas (2005)

The day was breezy so the boy went outside to fly a kite.

The day was breezy so the boy went outside to fly an airplane.

We’ll ignore the goal of original experiment (DeLong, Urbach, and Kutas 2005), and its replication (Nieuwland et al. 2018). We are going to focus on the N400 at the final nouns in the experimental stimuli. In example (2), for example, the final noun ‘kite’ has higher predictability than ‘airplane’, and thus we would expect a more negative signal in ‘airplane’ in (b) in comparison with ‘kite’ in (a).

To speed up computation, we restrict the data set to the subjects from the Edinburgh lab, using the relevant subset containing the Edinburgh data fro df_eeg in the bcogsci package. Center the cloze probability before using it as a predictor.

data("df_eeg")
(df_eeg <- df_eeg %>%
  mutate(c_cloze = cloze - mean(cloze)))

## # A tibble: 2,863 × 7
##    subj cloze  item  n400 cloze_ans     N c_cloze
##   <dbl> <dbl> <dbl> <dbl>     <dbl> <dbl>   <dbl>
## 1     1  0        1  7.08         0    44  -0.476
## 2     1  0.03     2 -0.68         1    44  -0.446
## 3     1  1        3  1.39        44    44   0.524
## # … with 2,860 more rows
…
