9.2 Testing the N400 effect using null hypothesis testing | An Introduction to Bayesian Data Analysis for Cognitive Science
…
Load the dataset on N400 amplitudes, which has data on cloze probabilities (Nieuwland et al. 2018). We mean-center the cloze probability measure to make the intercept and the random intercepts easier to interpret (i.e., they then represent the grand mean and the average variability around the grand mean across subjects or items).

df_eeg_data <- read_tsv("data/public_noun_data.txt") %>%
  filter(lab=="edin") %>%
  select(subject, cloze, item, n400) %>%
  mutate(subject = as.factor(subject) %>% as.numeric()) %>%
  mutate(c_cloze= cloze/100 - mean(cloze/100) )
df_eeg_data

## # A tibble: 2,827 x 5
##   subject cloze  item  n400 c_cloze
##     <dbl> <dbl> <dbl> <dbl>   <dbl>
## 1       1     0   101  7.08  -0.471
## 2       1     3   102 -0.68  -0.441
## 3       1   100   103  1.39   0.529
## 4       1    93   104 22.8    0.459
## 5       1     0   105  1.61  -0.471
## # … with 2,822 more rows
…
