3.2 Prior predictive distribution | An Introduction to Bayesian Data Analysis for Cognitive Science
…
The following code produces 1000 samples of the prior predictive distribution of the model that we defined in 3.1.1.1. Although this approach works, it’s quite slow (it takes about 5 seconds):

tic()
N_samples <- 1000
N_obs <- nrow(df_noreading_data)
mu_samples <- runif(N_samples, 0, 60000)
sigma_samples <- runif(N_samples, 0, 2000)

normal_predictive_distribution(
  mu_samples = mu_samples,
  sigma_samples = sigma_samples,
  N_obs = N_obs
)

## # A tibble: 361,000 x 3
##   trialn rt_pred  iter
##    <dbl>   <dbl> <dbl>
## 1      1  39076.     1
## 2      2  37545.     1
## 3      3  40495.     1
## 4      4  39252.     1
## 5      5  40160.     1
## # … with 360,995 more rows
…
tic()
(prior_pred <- normal_predictive_distribution_fast(
  mu_samples = mu_samples,
  sigma_samples = sigma_samples,
  N_obs))

## # A tibble: 361,000 x 3
##    iter trialn rt_pred
##   <dbl>  <int>   <dbl>
## 1     1      1  38913.
## 2     1      2  39396.
## 3     1      3  38948.
## 4     1      4  38643.
## 5     1      5  39612.
## # … with 360,995 more rows
…
