4.3 Logistic regression: Does set size affect free recall? | An Introduction to Bayesian Data Analysis for Cognitive Science
…
## # A tibble: 4 x 2
## # Groups:   set_size [4]
##   set_size     n
##      <dbl> <int>
## 1        2    23
## 2        4    23
## 3        6    23
## 4        8    23

The data look like this: the column correct records the 0 (incorrect) or 1 (correct) responses, and the column c_set_size records the centered memory set size; these latter scores have continuous values -3, -1, 1, and 3. These continuous values are centered versions of 2, 4, 6, and 8.

df_recall_data

## # A tibble: 92 x 8
##   subject set_size c_set_size correct trial session
##     <dbl>    <dbl>      <dbl>   <dbl> <dbl>   <dbl>
## 1      10        4         -1       1     1       1
## 2      10        8          3       0     4       1
## 3      10        2         -3       1     9       1
## 4      10        6          1       1    23       1
## 5      10        4         -1       1     5       1
##   block tested
##   <dbl>  <dbl>
## 1     1      2
## 2     1      8
## 3     1      2
## 4     1      2
## 5     2      3
## # … with 87 more rows
…
