3.1 Deriving the posterior through sampling | An Introduction to Bayesian Data Analysis for Cognitive Science
…
\[\begin{equation}
\begin{aligned}
\mu &\sim \mathit{Uniform}(0, 60000) \\
\sigma &\sim \mathit{Uniform}(0, 2000) 
\end{aligned}
\tag{3.4}
\end{equation}\]

First, load the data frame df_spacebar from the bcogsci package

data("df_spacebar")
df_spacebar

## # A tibble: 361 × 2
##      rt trial
##   <int> <int>
## 1   141     1
## 2   138     2
## 3   128     3
## # … with 358 more rows
…
